senderUsername;recieverUsername;status;date
0;pera123;zaki;REJECTED;18/01/2022
1;pera123;zaki;CANCELED;19/01/2022
2;pera123;mika456;ACCEPTED;19/01/2022
3;mika456;zaki;ACCEPTED;19/01/2022
4;pera123;zaki;WAITING;02/02/2022
5;aki;zaki;ACCEPTED;02/02/2022
6;pera123;aki;REJECTED;02/02/2022
